[
 {
  "directory": "/home/simmi/GITLAB/PROJECTS/tiling-app-wnck",
  "arguments": [
   "/usr/bin/gcc",
   "-Wno-unused-variable",
   "-Wall",
   "-O2",
   "-DWNCK_I_KNOW_THIS_IS_UNSTABLE",
   "-I/usr/include/libwnck-3.0",
   "-I/usr/include/glib-2.0",
   "-I/usr/lib/glib-2.0/include",
   "-I/usr/include/gtk-3.0",
   "-I/usr/include/pango-1.0",
   "-I/usr/include/harfbuzz",
   "-I/usr/include/freetype2",
   "-I/usr/include/libpng16",
   "-I/usr/include/libmount",
   "-I/usr/include/blkid",
   "-I/usr/include/fribidi",
   "-I/usr/include/cairo",
   "-I/usr/include/lzo",
   "-I/usr/include/pixman-1",
   "-I/usr/include/gdk-pixbuf-2.0",
   "-I/usr/include/gio-unix-2.0",
   "-I/usr/include/cloudproviders",
   "-I/usr/include/atk-1.0",
   "-I/usr/include/at-spi2-atk/2.0",
   "-I/usr/include/dbus-1.0",
   "-I/usr/lib/dbus-1.0/include",
   "-I/usr/include/at-spi-2.0",
   "-pthread",
   "-I/usr/include/startup-notification-1.0",
   "-lwnck-3",
   "-lgtk-3",
   "-lgdk-3",
   "-lz",
   "-lpangocairo-1.0",
   "-lpango-1.0",
   "-lharfbuzz",
   "-latk-1.0",
   "-lcairo-gobject",
   "-lcairo",
   "-lgdk_pixbuf-2.0",
   "-lgio-2.0",
   "-lgobject-2.0",
   "-lglib-2.0",
   "-o",
   "build/epstein",
   "src/epstein.c"
  ],
  "file": "src/epstein.c"
 },
 {
  "directory": "/home/simmi/GITLAB/PROJECTS/test-project",
  "arguments": [
   "/usr/bin/gcc",
   "-Wno-unused-variable",
   "-Wall",
   "-O2",
   "-DWNCK_I_KNOW_THIS_IS_UNSTABLE",
   "-I/usr/include/libwnck-3.0",
   "-I/usr/include/glib-2.0",
   "-I/usr/lib/glib-2.0/include",
   "-I/usr/include/gtk-3.0",
   "-I/usr/include/pango-1.0",
   "-I/usr/include/harfbuzz",
   "-I/usr/include/freetype2",
   "-I/usr/include/libpng16",
   "-I/usr/include/libmount",
   "-I/usr/include/blkid",
   "-I/usr/include/fribidi",
   "-I/usr/include/cairo",
   "-I/usr/include/lzo",
   "-I/usr/include/pixman-1",
   "-I/usr/include/gdk-pixbuf-2.0",
   "-I/usr/include/gio-unix-2.0",
   "-I/usr/include/cloudproviders",
   "-I/usr/include/atk-1.0",
   "-I/usr/include/at-spi2-atk/2.0",
   "-I/usr/include/dbus-1.0",
   "-I/usr/lib/dbus-1.0/include",
   "-I/usr/include/at-spi-2.0",
   "-pthread",
   "-I/usr/include/startup-notification-1.0",
   "-lwnck-3",
   "-lgtk-3",
   "-lgdk-3",
   "-lz",
   "-lpangocairo-1.0",
   "-lpango-1.0",
   "-lharfbuzz",
   "-latk-1.0",
   "-lcairo-gobject",
   "-lcairo",
   "-lgdk_pixbuf-2.0",
   "-lgio-2.0",
   "-lgobject-2.0",
   "-lglib-2.0",
   "-o",
   "build/tiling-app",
   "src/main.c"
  ],
  "file": "src/main.c"
 }
]
